<?xml version="1.0" encoding="utf-8"?>
<!-- Generator: Adobe Illustrator 18.1.1, SVG Export Plug-In . SVG Version: 6.00 Build 0)  -->
<svg version="1.1" id="Layer_1" xmlns="http://www.w3.org/2000/svg" xmlns:xlink="http://www.w3.org/1999/xlink" x="0px" y="0px"
	 width="182px" height="54px" viewBox="0 0 182 54" enable-background="new 0 0 182 54" xml:space="preserve">
<g>
	<path d="M175.5,0H6.4C2.9,0,0,2.9,0,6.4v41.2C0,51.1,2.9,54,6.4,54h169.1c3.5,0,6.5-2.9,6.5-6.4V6.4C182,2.9,179,0,175.5,0z"/>
	<g>
		<path fill="#FFFFFF" d="M40.7,26.7c0-4.4,3.6-6.5,3.7-6.6c-2-3-5.2-3.4-6.3-3.4c-2.7-0.3-5.2,1.6-6.6,1.6c-1.4,0-3.5-1.6-5.7-1.5
			c-2.9,0-5.6,1.7-7.1,4.3c-3.1,5.3-0.8,13.1,2.2,17.4c1.5,2.1,3.2,4.4,5.4,4.4c2.2-0.1,3-1.4,5.7-1.4c2.6,0,3.4,1.4,5.7,1.3
			c2.4,0,3.8-2.1,5.3-4.2c1.7-2.4,2.4-4.8,2.4-4.9C45.2,33.6,40.7,31.9,40.7,26.7z"/>
		<path fill="#FFFFFF" d="M36.4,13.9c1.2-1.5,2-3.5,1.8-5.5C36.4,8.5,34.3,9.6,33,11c-1.1,1.3-2.1,3.4-1.8,5.3
			C33.2,16.5,35.1,15.4,36.4,13.9z"/>
		<path fill="#FFFFFF" d="M63,24.6l-5.8,18h3l1.6-5.3h5.8l1.7,5.3h3.1l-5.8-18H63z M62.3,35l1.5-4.7c0.4-1.5,0.7-2.6,0.9-3.4h0.1
			c0.4,1.8,0.7,2.9,0.9,3.4l1.5,4.7H62.3z"/>
		<path fill="#FFFFFF" d="M81.9,29.3c-2,0-3.4,0.8-4.4,2.3h-0.1l-0.2-2.1h-2.5c0.1,1.5,0.1,2.9,0.1,4.3v14h2.9V41h0.1
			c0.7,1.2,2,1.8,3.7,1.8c1.6,0,2.9-0.6,4-1.7c1.2-1.3,1.8-3,1.8-5.2c0-2-0.5-3.6-1.5-4.8C84.7,29.9,83.5,29.3,81.9,29.3z
			 M83.5,39.3c-0.6,0.8-1.4,1.3-2.5,1.3c-0.9,0-1.7-0.3-2.3-1c-0.6-0.7-0.9-1.4-0.9-2.4V35c0-0.2,0-0.5,0.1-0.9
			c0.2-0.8,0.6-1.4,1.1-1.9c0.6-0.5,1.2-0.7,1.9-0.7c1,0,1.9,0.4,2.5,1.3c0.6,0.8,0.9,1.9,0.9,3.1C84.4,37.4,84.1,38.5,83.5,39.3z"
			/>
		<path fill="#FFFFFF" d="M96.8,29.3c-2,0-3.4,0.8-4.4,2.3h-0.1l-0.2-2.1h-2.5c0.1,1.5,0.1,2.9,0.1,4.3v14h2.9V41h0.1
			c0.7,1.2,2,1.8,3.7,1.8c1.6,0,2.9-0.6,4-1.7c1.2-1.3,1.8-3,1.8-5.2c0-2-0.5-3.6-1.5-4.8C99.6,29.9,98.4,29.3,96.8,29.3z
			 M98.4,39.3c-0.6,0.8-1.4,1.3-2.5,1.3c-0.9,0-1.7-0.3-2.3-1c-0.6-0.7-0.9-1.4-0.9-2.4V35c0-0.2,0-0.5,0.1-0.9
			c0.2-0.8,0.6-1.4,1.1-1.9c0.6-0.5,1.2-0.7,1.9-0.7c1,0,1.9,0.4,2.5,1.3c0.6,0.8,0.9,1.9,0.9,3.1C99.3,37.4,99,38.5,98.4,39.3z"/>
		<path fill="#FFFFFF" d="M114.4,32.2c-1.3-0.5-2.1-1-2.6-1.4c-0.6-0.5-0.8-1-0.8-1.8c0-0.6,0.2-1.2,0.7-1.6
			c0.6-0.5,1.4-0.7,2.4-0.7c1.3,0,2.4,0.3,3.4,0.8l0.7-2.3c-1.1-0.6-2.4-0.9-4.1-0.9c-1.8,0-3.3,0.5-4.4,1.4
			c-1.1,0.9-1.7,2.2-1.7,3.6c0,2.3,1.6,4,4.7,5.2c1.2,0.4,2,0.9,2.5,1.4c0.5,0.5,0.7,1.1,0.7,1.8c0,0.8-0.3,1.5-0.9,2
			c-0.6,0.5-1.5,0.7-2.5,0.7c-1.5,0-2.9-0.4-4.2-1.1l-0.7,2.4c1.2,0.7,2.7,1.1,4.7,1.1c2.1,0,3.7-0.5,4.9-1.6c1.1-1,1.6-2.2,1.6-3.7
			c0-1.2-0.4-2.3-1.1-3.1C117,33.5,115.9,32.8,114.4,32.2z"/>
		<path fill="#FFFFFF" d="M125.2,26.3l-2.8,0.9v2.4h-1.9v2.2h1.9v6.5c0,1.6,0.3,2.8,1,3.5c0.6,0.7,1.5,1,2.7,1
			c0.9,0,1.7-0.1,2.2-0.3l-0.1-2.2c-0.3,0.1-0.8,0.1-1.3,0.1c-1.1,0-1.7-0.8-1.7-2.4v-6.3h3.2v-2.2h-3.2V26.3z"/>
		<path fill="#FFFFFF" d="M136.4,29.3c-2,0-3.5,0.6-4.7,1.9c-1.2,1.3-1.7,2.9-1.7,4.9c0,1.9,0.6,3.5,1.7,4.8
			c1.1,1.3,2.6,1.9,4.5,1.9c2,0,3.6-0.7,4.7-2c1.1-1.3,1.7-2.9,1.7-4.9c0-1.9-0.6-3.5-1.7-4.7C139.9,29.9,138.3,29.3,136.4,29.3z
			 M138.9,39.1c-0.6,1-1.5,1.6-2.6,1.6c-1.1,0-2-0.5-2.6-1.5c-0.5-0.9-0.8-1.9-0.8-3.1c0-1.2,0.3-2.3,0.8-3.1c0.6-1,1.5-1.5,2.6-1.5
			c1.1,0,2,0.5,2.6,1.5c0.5,0.9,0.8,1.9,0.8,3.1C139.7,37.2,139.4,38.3,138.9,39.1z"/>
		<path fill="#FFFFFF" d="M149.2,30c-0.7,0.5-1.1,1.2-1.4,2.1h-0.1l-0.1-2.5h-2.5c0.1,1.2,0.1,2.6,0.1,4.1l0,8.9h2.9v-6.8
			c0-1,0.2-1.9,0.7-2.6c0.6-0.8,1.3-1.1,2.3-1.1c0.3,0,0.6,0,0.9,0.1v-2.7c-0.2,0-0.5-0.1-0.7-0.1C150.6,29.3,149.9,29.5,149.2,30z"
			/>
		<path fill="#FFFFFF" d="M164.9,35.4c0-1.6-0.4-3-1.1-4.1c-1-1.4-2.4-2.1-4.2-2.1c-1.9,0-3.4,0.7-4.5,2.1c-1.1,1.3-1.6,2.9-1.6,4.9
			c0,2,0.6,3.6,1.7,4.8c1.1,1.2,2.7,1.8,4.7,1.8c1.7,0,3.1-0.3,4.3-0.8l-0.5-2c-1,0.4-2.2,0.6-3.5,0.6c-1.2,0-2.1-0.3-2.8-0.9
			c-0.8-0.7-1.2-1.7-1.3-2.9h8.6C164.9,36.4,164.9,36,164.9,35.4z M156.2,34.7c0.1-0.9,0.4-1.6,0.9-2.2c0.6-0.8,1.4-1.2,2.3-1.2
			c1,0,1.8,0.4,2.3,1.2c0.4,0.6,0.6,1.4,0.6,2.2H156.2z"/>
		<path fill="#FFFFFF" d="M64.8,17.1c1-0.8,1.4-2,1.4-3.6c0-1.4-0.4-2.5-1.3-3.3c-0.8-0.7-2-1-3.5-1c-0.9,0-1.7,0.1-2.4,0.2v8.7
			c0.6,0.1,1.3,0.1,2.1,0.1C62.7,18.2,63.9,17.8,64.8,17.1z M60.4,10.4c0.3-0.1,0.7-0.1,1.1-0.1c1,0,1.8,0.3,2.4,0.8
			c0.5,0.5,0.8,1.3,0.8,2.4c0,1.2-0.3,2-0.9,2.6c-0.6,0.6-1.4,0.9-2.5,0.9c-0.5,0-0.8,0-1,0V10.4z"/>
		<path fill="#FFFFFF" d="M71.1,11.6c-1,0-1.7,0.3-2.3,0.9c-0.6,0.6-0.9,1.4-0.9,2.4c0,0.9,0.3,1.7,0.8,2.3c0.6,0.6,1.3,0.9,2.2,0.9
			c1,0,1.7-0.3,2.3-1c0.6-0.6,0.8-1.4,0.8-2.4c0-1-0.3-1.7-0.8-2.3C72.7,11.9,72,11.6,71.1,11.6z M72.3,16.5
			C72,17,71.5,17.2,71,17.2c-0.6,0-1-0.3-1.3-0.8c-0.3-0.4-0.4-0.9-0.4-1.5c0-0.6,0.1-1.1,0.4-1.5c0.3-0.5,0.7-0.8,1.3-0.8
			c0.5,0,1,0.3,1.3,0.8c0.3,0.4,0.4,0.9,0.4,1.5C72.7,15.5,72.5,16,72.3,16.5z"/>
		<path fill="#FFFFFF" d="M78.7,18.1l0.9-2.8c0.2-0.7,0.4-1.4,0.5-2.1h0c0.1,0.7,0.3,1.4,0.5,2.1l0.8,2.8h1.3l2-6.4h-1.4l-0.8,3
			c-0.2,0.7-0.3,1.4-0.4,2.1h0c-0.1-0.7-0.3-1.4-0.5-2.1l-0.9-3h-1.2l-0.9,3c-0.2,0.8-0.4,1.5-0.5,2h0c-0.1-0.6-0.3-1.3-0.4-2
			l-0.7-3h-1.5l1.9,6.4H78.7z"/>
		<polygon fill="#FFFFFF" points="84.7,11.8 84.7,11.8 84.7,11.8 		"/>
		<path fill="#FFFFFF" d="M90.7,14.5v3.6h1.4v-3.8c0-0.9-0.2-1.6-0.7-2.1c-0.4-0.4-0.9-0.6-1.5-0.6c-0.5,0-0.9,0.1-1.3,0.4
			c-0.3,0.2-0.6,0.5-0.7,0.8h0l-0.1-1h-1.2c0,0.7,0.1,1.3,0.1,1.8v4.5H88v-3.8c0-0.4,0.1-0.8,0.4-1.1c0.3-0.3,0.6-0.5,1-0.5
			C90.2,12.8,90.7,13.4,90.7,14.5z"/>
		<rect x="94.6" y="8.9" fill="#FFFFFF" width="1.4" height="9.3"/>
		<path fill="#FFFFFF" d="M101.2,11.6c-1,0-1.7,0.3-2.3,0.9c-0.6,0.6-0.9,1.4-0.9,2.4c0,0.9,0.3,1.7,0.8,2.3
			c0.6,0.6,1.3,0.9,2.2,0.9c1,0,1.7-0.3,2.3-1c0.6-0.6,0.8-1.4,0.8-2.4c0-1-0.3-1.7-0.8-2.3C102.9,11.9,102.2,11.6,101.2,11.6z
			 M102.4,16.5c-0.3,0.5-0.7,0.8-1.3,0.8c-0.5,0-1-0.3-1.3-0.8c-0.3-0.4-0.4-0.9-0.4-1.5c0-0.6,0.1-1.1,0.4-1.5
			c0.3-0.5,0.7-0.8,1.3-0.8c0.5,0,1,0.3,1.3,0.8c0.3,0.4,0.4,0.9,0.4,1.5C102.8,15.5,102.7,16,102.4,16.5z"/>
		<path fill="#FFFFFF" d="M109.7,17.4L109.7,17.4l0.1,0.7h1.3c-0.1-0.4-0.1-0.9-0.1-1.5v-2.3c0-1.8-0.8-2.6-2.5-2.6
			c-0.9,0-1.6,0.2-2.2,0.5l0.3,0.9c0.5-0.3,1-0.5,1.7-0.5c0.9,0,1.3,0.4,1.3,1.3V14c-1.2,0-2.1,0.2-2.7,0.6c-0.7,0.4-1,1-1,1.8
			c0,0.5,0.2,0.9,0.5,1.3c0.4,0.4,0.9,0.6,1.5,0.6C108.7,18.3,109.3,18,109.7,17.4z M107.3,16.2c0-0.9,0.8-1.3,2.3-1.3v1
			c0,0.1,0,0.2,0,0.2c-0.1,0.3-0.2,0.6-0.5,0.8c-0.3,0.2-0.6,0.3-0.9,0.3c-0.3,0-0.5-0.1-0.7-0.2C107.4,16.8,107.3,16.6,107.3,16.2z
			"/>
		<path fill="#FFFFFF" d="M119.1,8.9h-1.4v3.7h0c-0.3-0.6-0.9-0.9-1.8-0.9c-0.8,0-1.4,0.3-2,0.9c-0.6,0.6-0.8,1.5-0.8,2.5
			c0,1,0.3,1.7,0.8,2.3c0.5,0.6,1.1,0.9,1.9,0.9c1,0,1.6-0.4,2-1.2h0l0.1,1h1.3c0-0.5,0-1.1,0-1.7V8.9z M117.7,15.5
			c0,0.5-0.1,0.8-0.4,1.2c-0.3,0.3-0.7,0.5-1.1,0.5c-0.5,0-0.9-0.2-1.2-0.6c-0.3-0.4-0.4-0.9-0.4-1.5c0-0.7,0.2-1.2,0.5-1.6
			c0.3-0.4,0.7-0.6,1.2-0.6c0.4,0,0.7,0.1,0.9,0.3c0.3,0.2,0.4,0.5,0.5,0.9c0,0.1,0,0.3,0,0.4V15.5z"/>
		<path fill="#FFFFFF" d="M128.1,18.3c1,0,1.7-0.3,2.3-1c0.6-0.6,0.8-1.4,0.8-2.4c0-1-0.3-1.7-0.8-2.3c-0.6-0.6-1.3-0.9-2.3-0.9
			c-1,0-1.7,0.3-2.3,0.9c-0.6,0.6-0.9,1.4-0.9,2.4c0,0.9,0.3,1.7,0.8,2.3C126.4,18,127.2,18.3,128.1,18.3z M126.9,13.4
			c0.3-0.5,0.7-0.8,1.3-0.8c0.6,0,1,0.3,1.3,0.8c0.3,0.4,0.4,0.9,0.4,1.5c0,0.6-0.1,1.1-0.4,1.5c-0.3,0.5-0.7,0.8-1.3,0.8
			c-0.6,0-1-0.3-1.3-0.8c-0.3-0.4-0.4-0.9-0.4-1.5C126.5,14.4,126.6,13.9,126.9,13.4z"/>
		<path fill="#FFFFFF" d="M133.4,18.1h1.4v-3.8c0-0.4,0.1-0.8,0.4-1.1c0.3-0.3,0.6-0.5,1-0.5c0.9,0,1.3,0.6,1.3,1.7v3.6h1.4v-3.8
			c0-0.9-0.2-1.6-0.7-2.1c-0.4-0.4-0.9-0.6-1.5-0.6c-0.5,0-0.9,0.1-1.3,0.4c-0.3,0.2-0.6,0.5-0.7,0.8h0l-0.1-1h-1.2
			c0,0.7,0,1.3,0,1.8V18.1z"/>
		<path fill="#FFFFFF" d="M145.5,16c0,0.8,0.2,1.4,0.5,1.7c0.3,0.3,0.8,0.5,1.3,0.5c0.5,0,0.8-0.1,1.1-0.2l0-1.1
			c-0.2,0-0.4,0.1-0.6,0.1c-0.5,0-0.8-0.4-0.8-1.2v-3.1h1.6v-1.1h-1.6v-1.6l-1.4,0.4v1.2h-0.9v1.1h0.9V16z"/>
		<path fill="#FFFFFF" d="M154.5,14.5v3.6h1.4v-3.8c0-0.9-0.2-1.7-0.7-2.1c-0.4-0.4-0.9-0.6-1.5-0.6c-0.8,0-1.5,0.3-1.9,1h0V8.9
			h-1.4v9.3h1.4v-3.8c0-0.2,0-0.4,0.1-0.5c0.2-0.7,0.7-1,1.4-1C154.1,12.8,154.5,13.4,154.5,14.5z"/>
		<path fill="#FFFFFF" d="M161.1,18.3c0.8,0,1.5-0.1,2.1-0.4l-0.2-1c-0.5,0.2-1.1,0.3-1.7,0.3c-0.6,0-1-0.1-1.4-0.4
			c-0.4-0.3-0.6-0.8-0.6-1.4h4.2c0-0.2,0.1-0.4,0.1-0.6c0-0.8-0.2-1.5-0.6-2c-0.5-0.7-1.2-1-2.1-1c-0.9,0-1.7,0.3-2.2,1
			c-0.5,0.6-0.8,1.4-0.8,2.4c0,1,0.3,1.8,0.8,2.3C159.4,18,160.2,18.3,161.1,18.3z M159.8,13.2c0.3-0.4,0.7-0.6,1.1-0.6
			c0.5,0,0.9,0.2,1.1,0.6c0.2,0.3,0.3,0.7,0.3,1.1h-2.9C159.4,13.9,159.5,13.5,159.8,13.2z"/>
	</g>
</g>
</svg>
